…
plate$RNA_level <- plate$RNA %>% factor(labels = paste0("RNA_", LETTERS[1:6]))
plate$RTP_level <- plate$RT_PRIMERS %>% factor(labels = paste0("RTP_", LETTERS[1:7]))
```

Summary
=======


```r
plate 
```

```
## # A tibble: 384 x 18
##    well  row   col   sxt   BARCODE_ID TSO_source TSO_vol    TSO RT_PRIMERS RT_PRIMERS_vol
##  * <chr> <fct> <fct> <fct>      <dbl>      <dbl>   <dbl>  <dbl>      <dbl>          <dbl>
##  1 A01   A     1     A1           78.       12.5     50.   1.25         0.             0.
##  2 A02   A     2     A1           23.      800.      25.  40.0         16.            25.
##  3 A03   A     3     A1           16.       12.5    100.   2.50        16.            25.
##  4 A04   A     4     A1           55.      100.      50.  10.0          8.            25.
##  5 A05   A     5     A1            1.      100.     100.  20.0          0.             0.
##  6 A06   A     6     A1           34.      800.     100. 160.          16.            25.
##  7 A07   A     7     A1            5.       12.5    100.   2.50         2.            25.
##  8 A08   A     8     A1           65.       12.5    100.   2.50         1.            25.
##  9 C01   C     1     A1           28.       12.5     50.   1.25         1.            25.
## 10 C02   C     2     A1           41.       12.5     50.   1.25         8.            25.
## # ... with 374 more rows, and 8 more variables: MASTER_MIX_vol <dbl>, INDEX <fct>, RNA <dbl>,
## #   RNA_vol <dbl>, H2O_vol <dbl>, BARCODE_SEQ <chr>, RNA_level <fct>, RTP_level <fct>
```
…
