…
Summary
=======


```r
plate 
```

```
## # A tibble: 384 x 18
##    well  row   col   MASTER_MIX_vol   TSO TSO_vol BARCODE_ID_norandom INDEX  BARCODE_ID BARCODE_SEQ
##    <chr> <fct> <fct>          <dbl> <dbl>   <dbl>               <int> <fct>       <int> <fct>      
##  1 A01   A     1               350.  100.    100.                   1 indexE         18 AGTGTG     
##  2 A02   A     2               350.  100.    100.                   2 indexE         67 GCTCAG     
##  3 A03   A     3               350.  100.    100.                   3 indexE         54 CTGTGA     
##  4 A04   A     4               350.  100.    100.                   4 indexE         16 AGTGAT     
##  5 A05   A     5               350.  100.      0.                   5 indexE         87 TATCTC     
##  6 A06   A     6               350.  100.    100.                   6 indexE         86 TATCGT     
##  7 A07   A     7               350.  100.    100.                   7 indexE         12 AGTATA     
##  8 A08   A     8               350.  100.    100.                   8 indexE         75 GTACTC     
##  9 A09   A     9               350.  100.    100.                   9 indexE         42 CGAGTG     
## 10 A10   A     10              350.  100.    100.                  10 indexE         48 CTGATA     
## # ... with 374 more rows, and 8 more variables: H2O_vol <dbl>, RT_PRIMERS <dbl>,
## #   RT_PRIMERS_vol <dbl>, RNA <dbl>, RNA_vol <dbl>, RNA_group <chr>, total_volume <dbl>,
## #   PRIMERS_RATIO <chr>
```
…
