…
plate$RNA[plate$RNA_vol == 0] <- 0
plate$plateID <- plateID
```

Summary
=======


```r
plate 
```

```
## # A tibble: 384 x 19
##    well  row   col   sxt   BARCODE_ID TSO_source TSO_vol   TSO RT_PRIMERS RT_PRIMERS_vol
##  * <chr> <fct> <fct> <fct>      <dbl>      <dbl>   <dbl> <dbl>      <dbl>          <dbl>
##  1 A01   A     1     A1             3        800     100   160          0              0
##  2 A02   A     2     A1            15        800     100   160          1             25
##  3 A03   A     3     A1            27        800     100   160          2             25
##  4 A04   A     4     A1            39        800     100   160          4             25
##  5 A05   A     5     A1            51        800     100   160          8             25
##  6 A06   A     6     A1            63        800     100   160         16             25
##  7 A07   A     7     A1            75        800     100   160         24             25
##  8 A08   A     8     A1            10        800      50    80          0              0
##  9 C01   C     1     A1            22        800      50    80          1             25
## 10 C02   C     2     A1            34        800      50    80          2             25
## # ... with 374 more rows, and 9 more variables: MASTER_MIX_vol <dbl>, INDEX <fct>, RNA <dbl>,
## #   RNA_vol <dbl>, H2O_vol <dbl>, BARCODE_SEQ <chr>, RNA_level <fct>, RTP_level <fct>,
## #   plateID <chr>
```
…
