…
plate$RNA[plate$RNA_vol == 0] <- 0
plate$plateID <- plateID
```

Summary
=======


```r
plate 
```

```
## # A tibble: 384 x 19
##    well  row   col   sxt   BARCODE_ID TSO_source TSO_vol     TSO RT_PRIMERS RT_PRIMERS_vol
##  * <chr> <fct> <fct> <fct>      <dbl>      <dbl>   <dbl>   <dbl>      <dbl>          <dbl>
##  1 A01   A     1     A1           34.      800.      25.  40.0           0.             0.
##  2 A02   A     2     A1            1.      100.      25.   5.00          8.            25.
##  3 A03   A     3     A1           82.      800.     100. 160.            8.            25.
##  4 A04   A     4     A1           25.      100.      50.  10.0           4.            25.
##  5 A05   A     5     A1           41.       12.5    100.   2.50         24.            25.
##  6 A06   A     6     A1           76.       12.5     25.   0.625         1.            25.
##  7 A07   A     7     A1           15.      800.      25.  40.0          16.            25.
##  8 A08   A     8     A1           43.      100.      25.   5.00          0.             0.
##  9 C01   C     1     A1           38.      100.     100.  20.0           1.            25.
## 10 C02   C     2     A1           52.       12.5     25.   0.625         2.            25.
## # ... with 374 more rows, and 9 more variables: MASTER_MIX_vol <dbl>, INDEX <fct>, RNA <dbl>,
## #   RNA_vol <dbl>, H2O_vol <dbl>, BARCODE_SEQ <chr>, RNA_level <fct>, RTP_level <fct>,
## #   plateID <chr>
```
…
