…
plate$RNA_level <- plate$RNA %>% factor(labels = paste0("RNA_", LETTERS[1:6]))
plate$RTP_level <- plate$RT_PRIMERS %>% factor(labels = paste0("RTP_", LETTERS[1:7]))
```

Summary
=======


```r
plate 
```

```
## # A tibble: 384 x 18
##    well  row   col   sxt   BARCODE_ID TSO_source TSO_vol     TSO RT_PRIMERS RT_PRIMERS_vol
##  * <chr> <fct> <fct> <fct>      <dbl>      <dbl>   <dbl>   <dbl>      <dbl>          <dbl>
##  1 A01   A     1     A1           50.      100.      25.   5.00         24.            25.
##  2 A02   A     2     A1           71.      800.      25.  40.0           2.            25.
##  3 A03   A     3     A1           43.      100.      50.  10.0           1.            25.
##  4 A04   A     4     A1            4.       12.5    100.   2.50          8.            25.
##  5 A05   A     5     A1           11.      800.     100. 160.           16.            25.
##  6 A06   A     6     A1           42.       12.5     50.   1.25          2.            25.
##  7 A07   A     7     A1           70.      800.      25.  40.0          16.            25.
##  8 A08   A     8     A1            5.       12.5    100.   2.50         16.            25.
##  9 C01   C     1     A1           40.       12.5     25.   0.625         1.            25.
## 10 C02   C     2     A1           82.      800.      25.  40.0           8.            25.
## # ... with 374 more rows, and 8 more variables: MASTER_MIX_vol <dbl>, INDEX <fct>, RNA <dbl>,
## #   RNA_vol <dbl>, H2O_vol <dbl>, BARCODE_SEQ <chr>, RNA_level <fct>, RTP_level <fct>
```
…
