…
plate$RNA_level <- plate$RNA %>% factor(labels = paste0("RNA_", LETTERS[1:6]))
plate$RTP_level <- plate$RT_PRIMERS %>% factor(labels = paste0("RTP_", LETTERS[1:7]))
```

Summary
=======


```r
plate 
```

```
## # A tibble: 384 x 18
##    well  row   col   sxt   BARCODE_ID TSO_source TSO_vol    TSO RT_PRIMERS RT_PRIMERS_vol
##  * <chr> <fct> <fct> <fct>      <dbl>      <dbl>   <dbl>  <dbl>      <dbl>          <dbl>
##  1 A01   A     1     A1           90.       12.5     50.   1.25        16.            25.
##  2 A02   A     2     A1           61.      100.     100.  20.0         24.            25.
##  3 A03   A     3     A1           73.      100.     100.  20.0          4.            25.
##  4 A04   A     4     A1           74.      100.      50.  10.0          0.             0.
##  5 A05   A     5     A1           71.      800.      50.  80.0         24.            25.
##  6 A06   A     6     A1           83.      800.     100. 160.           4.            25.
##  7 A07   A     7     A1           63.      800.      25.  40.0          1.            25.
##  8 A08   A     8     A1            3.      800.      25.  40.0          4.            25.
##  9 C01   C     1     A1           46.      800.     100. 160.           2.            25.
## 10 C02   C     2     A1           82.      800.      50.  80.0          4.            25.
## # ... with 374 more rows, and 8 more variables: MASTER_MIX_vol <dbl>, INDEX <fct>, RNA <dbl>,
## #   RNA_vol <dbl>, H2O_vol <dbl>, BARCODE_SEQ <chr>, RNA_level <fct>, RTP_level <fct>
```
…
