…
```r
levels(plate$INDEX) <- c("TAAGGCGA", "CGTACTAG", "AGGCAGAA", "TCCTGAGC")
```

Summary
=======


```r
plate 
```

```
## # A tibble: 384 x 18
##    well  row   col   MASTER_MIX_vol   TSO TSO_vol BARCODE_ID_norand… INDEX   BARCODE_ID BARCODE_SEQ
##    <chr> <fct> <fct>          <dbl> <dbl>   <dbl>              <int> <fct>        <int> <fct>      
##  1 A01   A     1               350.  100.    100.                  1 TAAGGC…         26 ATCTCT     
##  2 A02   A     2               350.  100.    100.                  2 TAAGGC…         36 CACTGA     
##  3 A03   A     3               350.  100.    100.                  3 TAAGGC…         54 CTGTGA     
##  4 A04   A     4               350.  100.    100.                  4 TAAGGC…         85 TATCAG     
##  5 A05   A     5               350.  100.    100.                  5 TAAGGC…         19 ATCACG     
##  6 A06   A     6               350.  100.    100.                  6 TAAGGC…         82 TATACG     
##  7 A07   A     7               350.  100.    100.                  7 TAAGGC…         86 TATCGT     
##  8 A08   A     8               350.  100.    100.                  8 TAAGGC…         59 GAGCGT     
##  9 A09   A     9               350.  100.    100.                  9 TAAGGC…         56 GAGAGC     
## 10 A10   A     10              350.  100.    100.                 10 TAAGGC…          6 ACAGTG     
## # ... with 374 more rows, and 8 more variables: H2O_vol <dbl>, RT_PRIMERS <dbl>,
## #   RT_PRIMERS_vol <dbl>, RNA <dbl>, RNA_vol <dbl>, RNA_group <chr>, total_volume <dbl>,
## #   PRIMERS_RATIO <chr>
```
…
