…
## Target plate layout

Create a data frame representing the contents of each well.


```r
plate <- tibble(well = platetools::num_to_well(1:384, plate = "384"))
plate
```

```
## # A tibble: 384 x 1
##     well
##    <chr>
##  1   A01
##  2   A02
##  3   A03
##  4   A04
##  5   A05
##  6   A06
##  7   A07
##  8   A08
##  9   A09
## 10   A10
## # ... with 374 more rows
```
…
